{
    "Records": [
      {
        "messageId": "19dd0b57-b21e-4ac1-bd88-01bbb068cb78",
        "receiptHandle": "MessageReceiptHandle",
        "body": "{\"from\":\"COVID-19 Symptom Tracker <noreply@mg.bettercoding.dev>\",\"to\":\"daniel@danielparker.com.au\",\"subject\":\"[2020-03-30] Fill out your symptoms for today\",\"html\":\"\\n        <h1>It's time to fill out your symptoms for 2020-03-30<\/h1>\\n        <p> Click <a href=\\\"http:\/\/localhost:3000\/today?abcdefg\\\">here<a\/> to fill in today's update.<\/p>\\n    \"}",
        "attributes": {
          "ApproximateReceiveCount": "1",
          "SentTimestamp": "1523232000000",
          "SenderId": "123456789012",
          "ApproximateFirstReceiveTimestamp": "1523232000001"
        },
        "messageAttributes": {},
        "md5OfBody": "7b270e59b47ff90a553787216d55d91d",
        "eventSource": "aws:sqs",
        "eventSourceARN": "arn:aws:sqs:us-east-1:123456789012:MyQueue",
        "awsRegion": "us-east-1"
      }
    ]
  }